{"results":[{"blocks_url":"https://courses.edx.org/api/courses/v2/blocks/?course_id=ccx-v1%3Aadam%2BMac_APccx%2Be0d%2Bccx%403","effort":"2:00","end":null,"enrollment_start":"2015-07-21T10:00:00Z","enrollment_end":"2016-06-29T10:00:00Z","id":"ccx-v1:adam+Mac_APccx+e0d+ccx@3","media":{"banner_image":{"uri":"/asset-v1:adam+Mac_APccx+e0d+type@asset+block@images_course_image.jpg","uri_absolute":"https://courses.edx.org/asset-v1:adam+Mac_APccx+e0d+type@asset+block@images_course_image.jpg"},"course_image":{"uri":"/asset-v1:adam+Mac_APccx+e0d+type@asset+block@Davidson_EdX-68_1_.png"},"course_video":{"uri":"http://www.youtube.com/watch?v=sAnHwOL8aAs"},"image":{"raw":"https://courses.edx.org/asset-v1:adam+Mac_APccx+e0d+type@asset+block@Davidson_EdX-68_1_.png","small":"https://courses.edx.org/asset-v1:adam+Mac_APccx+e0d+type@thumbnail+block@Davidson_EdX-68_1_-png-375x200.jpg","large":"https://courses.edx.org/asset-v1:adam+Mac_APccx+e0d+type@thumbnail+block@Davidson_EdX-68_1_-png-750x400.jpg"}},"name":"ntest","number":"Mac_APccx","org":"adam","short_description":"","start":"2016-06-27T14:10:44Z","start_display":"June 27, 2016","start_type":"timestamp","pacing":"instructor","mobile_available":false,"hidden":false,"invitation_only":false,"course_id":"ccx-v1:adam+Mac_APccx+e0d+ccx@3"},{"blocks_url":"https://courses.edx.org/api/courses/v2/blocks/?course_id=ccx-v1%3Aadam%2BMac_APccx%2Be0d%2Bccx%404","effort":"2:00","end":null,"enrollment_start":"2015-07-21T10:00:00Z","enrollment_end":"2016-06-29T10:00:00Z","id":"ccx-v1:adam+Mac_APccx+e0d+ccx@4","media":{"banner_image":{"uri":"/asset-v1:adam+Mac_APccx+e0d+type@asset+block@images_course_image.jpg","uri_absolute":"https://courses.edx.org/asset-v1:adam+Mac_APccx+e0d+type@asset+block@images_course_image.jpg"},"course_image":{"uri":"/asset-v1:adam+Mac_APccx+e0d+type@asset+block@Davidson_EdX-68_1_.png"},"course_video":{"uri":"http://www.youtube.com/watch?v=sAnHwOL8aAs"},"image":{"raw":"https://courses.edx.org/asset-v1:adam+Mac_APccx+e0d+type@asset+block@Davidson_EdX-68_1_.png","small":"https://courses.edx.org/asset-v1:adam+Mac_APccx+e0d+type@thumbnail+block@Davidson_EdX-68_1_-png-375x200.jpg","large":"https://courses.edx.org/asset-v1:adam+Mac_APccx+e0d+type@thumbnail+block@Davidson_EdX-68_1_-png-750x400.jpg"}},"name":"ntest","number":"Mac_APccx","org":"adam","short_description":"","start":"2016-06-27T14:10:48Z","start_display":"June 27, 2016","start_type":"timestamp","pacing":"instructor","mobile_available":false,"hidden":false,"invitation_only":false,"course_id":"ccx-v1:adam+Mac_APccx+e0d+ccx@4"},{"blocks_url":"https://courses.edx.org/api/courses/v2/blocks/?course_id=ccx-v1%3ABerkeleyX%2BCS169.1x%2B3T2015SP%2Bccx%4011","effort":"12 hours/week","end":null,"enrollment_start":null,"enrollment_end":"2016-07-18T00:00:00Z","id":"ccx-v1:BerkeleyX+CS169.1x+3T2015SP+ccx@11","media":{"banner_image":{"uri":"/asset-v1:BerkeleyX+CS169.1x+3T2015SP+type@asset+block@images_course_image.jpg","uri_absolute":"https://courses.edx.org/asset-v1:BerkeleyX+CS169.1x+3T2015SP+type@asset+block@images_course_image.jpg"},"course_image":{"uri":"/asset-v1:BerkeleyX+CS169.1x+3T2015SP+type@asset+block@ruby-rails-programming-100354527-primary.idge.jpg"},"course_video":{"uri":"http://www.youtube.com/watch?v=V36LpHqtcDY"},"image":{"raw":"https://courses.edx.org/asset-v1:BerkeleyX+CS169.1x+3T2015SP+type@asset+block@ruby-rails-programming-100354527-primary.idge.jpg","small":"https://courses.edx.org/asset-v1:BerkeleyX+CS169.1x+3T2015SP+type@thumbnail+block@ruby-rails-programming-100354527-primary.idge-375x200.jpg","large":"https://courses.edx.org/asset-v1:BerkeleyX+CS169.1x+3T2015SP+type@thumbnail+block@ruby-rails-programming-100354527-primary.idge-750x400.jpg"}},"name":"Grinnell CSC321 2016F","number":"CS169.1x","org":"BerkeleyX","short_description":"CS169.1x teaches the fundamentals for engineering long-lived software using Agile techniques to develop Software as a Service (SaaS) using Ruby on Rails.","start":"2016-06-07T20:00:00Z","start_display":"June 7, 2016","start_type":"timestamp","pacing":"instructor","mobile_available":true,"hidden":false,"invitation_only":false,"course_id":"ccx-v1:BerkeleyX+CS169.1x+3T2015SP+ccx@11"},{"blocks_url":"https://courses.edx.org/api/courses/v2/blocks/?course_id=ccx-v1%3ABerkeleyX%2BCS169.1x%2B3T2015SP%2Bccx%405","effort":"12 hours/week","end":null,"enrollment_start":null,"enrollment_end":"2016-07-18T00:00:00Z","id":"ccx-v1:BerkeleyX+CS169.1x+3T2015SP+ccx@5","media":{"banner_image":{"uri":"/asset-v1:BerkeleyX+CS169.1x+3T2015SP+type@asset+block@images_course_image.jpg","uri_absolute":"https://courses.edx.org/asset-v1:BerkeleyX+CS169.1x+3T2015SP+type@asset+block@images_course_image.jpg"},"course_image":{"uri":"/asset-v1:BerkeleyX+CS169.1x+3T2015SP+type@asset+block@ruby-rails-programming-100354527-primary.idge.jpg"},"course_video":{"uri":"http://www.youtube.com/watch?v=V36LpHqtcDY"},"image":{"raw":"https://courses.edx.org/asset-v1:BerkeleyX+CS169.1x+3T2015SP+type@asset+block@ruby-rails-programming-100354527-primary.idge.jpg","small":"https://courses.edx.org/asset-v1:BerkeleyX+CS169.1x+3T2015SP+type@thumbnail+block@ruby-rails-programming-100354527-primary.idge-375x200.jpg","large":"https://courses.edx.org/asset-v1:BerkeleyX+CS169.1x+3T2015SP+type@thumbnail+block@ruby-rails-programming-100354527-primary.idge-750x400.jpg"}},"name":"Test","number":"CS169.1x","org":"BerkeleyX","short_description":"CS169.1x teaches the fundamentals for engineering long-lived software using Agile techniques to develop Software as a Service (SaaS) using Ruby on Rails.","start":"2016-05-24T20:00:00Z","start_display":"May 24, 2016","start_type":"timestamp","pacing":"instructor","mobile_available":true,"hidden":false,"invitation_only":false,"course_id":"ccx-v1:BerkeleyX+CS169.1x+3T2015SP+ccx@5"},{"blocks_url":"https://courses.edx.org/api/courses/v2/blocks/?course_id=ccx-v1%3ABUx%2BPY1x%2B3T2016%2Bccx%4012","effort":null,"end":null,"enrollment_start":"2016-08-08T18:00:00Z","enrollment_end":null,"id":"ccx-v1:BUx+PY1x+3T2016+ccx@12","media":{"banner_image":{"uri":"/asset-v1:BUx+PY1x+3T2016+type@asset+block@images_course_image.jpg","uri_absolute":"https://courses.edx.org/asset-v1:BUx+PY1x+3T2016+type@asset+block@images_course_image.jpg"},"course_image":{"uri":"/asset-v1:BUx+PY1x+3T2016+type@asset+block@AP_Physics_Dashboard_Image.png"},"course_video":{"uri":null},"image":{"raw":"https://courses.edx.org/asset-v1:BUx+PY1x+3T2016+type@asset+block@AP_Physics_Dashboard_Image.png","small":"https://courses.edx.org/asset-v1:BUx+PY1x+3T2016+type@thumbnail+block@AP_Physics_Dashboard_Image-png-375x200.jpg","large":"https://courses.edx.org/asset-v1:BUx+PY1x+3T2016+type@thumbnail+block@AP_Physics_Dashboard_Image-png-750x400.jpg"}},"name":"AHS AP Physics","number":"PY1x","org":"BUx","short_description":"","start":"2016-09-12T16:14:32Z","start_display":"Sept. 12, 2016","start_type":"timestamp","pacing":"instructor","mobile_available":true,"hidden":false,"invitation_only":false,"course_id":"ccx-v1:BUx+PY1x+3T2016+ccx@12"},{"blocks_url":"https://courses.edx.org/api/courses/v2/blocks/?course_id=ccx-v1%3ABUx%2BPY1x%2B3T2016%2Bccx%4013","effort":null,"end":null,"enrollment_start":"2016-08-08T18:00:00Z","enrollment_end":null,"id":"ccx-v1:BUx+PY1x+3T2016+ccx@13","media":{"banner_image":{"uri":"/asset-v1:BUx+PY1x+3T2016+type@asset+block@images_course_image.jpg","uri_absolute":"https://courses.edx.org/asset-v1:BUx+PY1x+3T2016+type@asset+block@images_course_image.jpg"},"course_image":{"uri":"/asset-v1:BUx+PY1x+3T2016+type@asset+block@AP_Physics_Dashboard_Image.png"},"course_video":{"uri":null},"image":{"raw":"https://courses.edx.org/asset-v1:BUx+PY1x+3T2016+type@asset+block@AP_Physics_Dashboard_Image.png","small":"https://courses.edx.org/asset-v1:BUx+PY1x+3T2016+type@thumbnail+block@AP_Physics_Dashboard_Image-png-375x200.jpg","large":"https://courses.edx.org/asset-v1:BUx+PY1x+3T2016+type@thumbnail+block@AP_Physics_Dashboard_Image-png-750x400.jpg"}},"name":"AHS AP Physics","number":"PY1x","org":"BUx","short_description":"","start":"2016-09-12T06:00:00Z","start_display":"Sept. 12, 2016","start_type":"timestamp","pacing":"instructor","mobile_available":true,"hidden":false,"invitation_only":false,"course_id":"ccx-v1:BUx+PY1x+3T2016+ccx@13"},{"blocks_url":"https://courses.edx.org/api/courses/v2/blocks/?course_id=ccx-v1%3ABUx%2BPY1x%2B3T2016%2Bccx%4014","effort":null,"end":null,"enrollment_start":"2016-08-08T18:00:00Z","enrollment_end":null,"id":"ccx-v1:BUx+PY1x+3T2016+ccx@14","media":{"banner_image":{"uri":"/asset-v1:BUx+PY1x+3T2016+type@asset+block@images_course_image.jpg","uri_absolute":"https://courses.edx.org/asset-v1:BUx+PY1x+3T2016+type@asset+block@images_course_image.jpg"},"course_image":{"uri":"/asset-v1:BUx+PY1x+3T2016+type@asset+block@AP_Physics_Dashboard_Image.png"},"course_video":{"uri":null},"image":{"raw":"https://courses.edx.org/asset-v1:BUx+PY1x+3T2016+type@asset+block@AP_Physics_Dashboard_Image.png","small":"https://courses.edx.org/asset-v1:BUx+PY1x+3T2016+type@thumbnail+block@AP_Physics_Dashboard_Image-png-375x200.jpg","large":"https://courses.edx.org/asset-v1:BUx+PY1x+3T2016+type@thumbnail+block@AP_Physics_Dashboard_Image-png-750x400.jpg"}},"name":"GIS AP Physics 1","number":"PY1x","org":"BUx","short_description":"","start":"2016-09-12T18:00:00Z","start_display":"Sept. 12, 2016","start_type":"timestamp","pacing":"instructor","mobile_available":true,"hidden":false,"invitation_only":false,"course_id":"ccx-v1:BUx+PY1x+3T2016+ccx@14"},{"blocks_url":"https://courses.edx.org/api/courses/v2/blocks/?course_id=ccx-v1%3ABUx%2BPY1x%2B3T2016%2Bccx%4017","effort":null,"end":null,"enrollment_start":"2016-08-08T18:00:00Z","enrollment_end":null,"id":"ccx-v1:BUx+PY1x+3T2016+ccx@17","media":{"banner_image":{"uri":"/asset-v1:BUx+PY1x+3T2016+type@asset+block@images_course_image.jpg","uri_absolute":"https://courses.edx.org/asset-v1:BUx+PY1x+3T2016+type@asset+block@images_course_image.jpg"},"course_image":{"uri":"/asset-v1:BUx+PY1x+3T2016+type@asset+block@AP_Physics_Dashboard_Image.png"},"course_video":{"uri":null},"image":{"raw":"https://courses.edx.org/asset-v1:BUx+PY1x+3T2016+type@asset+block@AP_Physics_Dashboard_Image.png","small":"https://courses.edx.org/asset-v1:BUx+PY1x+3T2016+type@thumbnail+block@AP_Physics_Dashboard_Image-png-375x200.jpg","large":"https://courses.edx.org/asset-v1:BUx+PY1x+3T2016+type@thumbnail+block@AP_Physics_Dashboard_Image-png-750x400.jpg"}},"name":"AP Physics 1","number":"PY1x","org":"BUx","short_description":"","start":"2016-09-12T18:00:00Z","start_display":"Sept. 12, 2016","start_type":"timestamp","pacing":"instructor","mobile_available":true,"hidden":false,"invitation_only":false,"course_id":"ccx-v1:BUx+PY1x+3T2016+ccx@17"},{"blocks_url":"https://courses.edx.org/api/courses/v2/blocks/?course_id=ccx-v1%3ABUx%2BPY1x%2B3T2016%2Bccx%4018","effort":null,"end":null,"enrollment_start":"2016-08-08T18:00:00Z","enrollment_end":null,"id":"ccx-v1:BUx+PY1x+3T2016+ccx@18","media":{"banner_image":{"uri":"/asset-v1:BUx+PY1x+3T2016+type@asset+block@images_course_image.jpg","uri_absolute":"https://courses.edx.org/asset-v1:BUx+PY1x+3T2016+type@asset+block@images_course_image.jpg"},"course_image":{"uri":"/asset-v1:BUx+PY1x+3T2016+type@asset+block@AP_Physics_Dashboard_Image.png"},"course_video":{"uri":null},"image":{"raw":"https://courses.edx.org/asset-v1:BUx+PY1x+3T2016+type@asset+block@AP_Physics_Dashboard_Image.png","small":"https://courses.edx.org/asset-v1:BUx+PY1x+3T2016+type@thumbnail+block@AP_Physics_Dashboard_Image-png-375x200.jpg","large":"https://courses.edx.org/asset-v1:BUx+PY1x+3T2016+type@thumbnail+block@AP_Physics_Dashboard_Image-png-750x400.jpg"}},"name":"Morckel AP1 Period 5","number":"PY1x","org":"BUx","short_description":"","start":"2016-09-12T18:00:00Z","start_display":"Sept. 12, 2016","start_type":"timestamp","pacing":"instructor","mobile_available":true,"hidden":false,"invitation_only":false,"course_id":"ccx-v1:BUx+PY1x+3T2016+ccx@18"},{"blocks_url":"https://courses.edx.org/api/courses/v2/blocks/?course_id=ccx-v1%3ABUx%2BPY1x%2B3T2016%2Bccx%4019","effort":null,"end":null,"enrollment_start":"2016-08-08T18:00:00Z","enrollment_end":null,"id":"ccx-v1:BUx+PY1x+3T2016+ccx@19","media":{"banner_image":{"uri":"/asset-v1:BUx+PY1x+3T2016+type@asset+block@images_course_image.jpg","uri_absolute":"https://courses.edx.org/asset-v1:BUx+PY1x+3T2016+type@asset+block@images_course_image.jpg"},"course_image":{"uri":"/asset-v1:BUx+PY1x+3T2016+type@asset+block@AP_Physics_Dashboard_Image.png"},"course_video":{"uri":null},"image":{"raw":"https://courses.edx.org/asset-v1:BUx+PY1x+3T2016+type@asset+block@AP_Physics_Dashboard_Image.png","small":"https://courses.edx.org/asset-v1:BUx+PY1x+3T2016+type@thumbnail+block@AP_Physics_Dashboard_Image-png-375x200.jpg","large":"https://courses.edx.org/asset-v1:BUx+PY1x+3T2016+type@thumbnail+block@AP_Physics_Dashboard_Image-png-750x400.jpg"}},"name":"Morckel AP1 Period 5","number":"PY1x","org":"BUx","short_description":"","start":"2016-09-12T18:00:00Z","start_display":"Sept. 12, 2016","start_type":"timestamp","pacing":"instructor","mobile_available":true,"hidden":false,"invitation_only":false,"course_id":"ccx-v1:BUx+PY1x+3T2016+ccx@19"}],"pagination":{"next":"https://courses.edx.org/api/courses/v1/courses/?page=2","previous":null,"count":21248,"num_pages":2125}}